[
  {
    "uuid": "275c03f9-f9d2-45c5-a332-b3bee54e7065",
    "name": "Plains",
    "number": 293,
    "setName": "Revised Edition"
  },
  {
    "uuid": "cc0bcdbe-be63-446a-8838-8790bda308a3",
    "name": "Plains",
    "number": 294,
    "setName": "Revised Edition"
  },
  {
    "uuid": "a4901260-073a-4d06-8167-c322c55ab210",
    "name": "Plains",
    "number": 295,
    "setName": "Revised Edition"
  },
  {
    "uuid": "22f6e971-349d-498b-ae01-ab81ce21772c",
    "name": "Island",
    "number": 287,
    "setName": "Revised Edition"
  },
  {
    "uuid": "a000777b-e8fe-4fd6-a455-01bc9056a873",
    "name": "Island",
    "number": 288,
    "setName": "Revised Edition"
  },
  {
    "uuid": "bec8018f-a12c-4adf-9735-c2093298062d",
    "name": "Island",
    "number": 289,
    "setName": "Revised Edition"
  },
  {
    "uuid": "95e936cf-3bbb-4f3b-8e1a-4be1d4702b99",
    "name": "Swamp",
    "number": 299,
    "setName": "Revised Edition"
  },
  {
    "uuid": "459d175e-2b9c-4f30-be03-4e05cd3c68ef",
    "name": "Swamp",
    "number": 300,
    "setName": "Revised Edition"
  },
  {
    "uuid": "515eff31-24f6-462e-bbd4-b49540421a75",
    "name": "Swamp",
    "number": 301,
    "setName": "Revised Edition"
  },
  {
    "uuid": "30345500-d430-4280-bfe3-de297309f136",
    "name": "Mountain",
    "number": 290,
    "setName": "Revised Edition"
  },
  {
    "uuid": "5a240d1b-8430-4986-850d-32afa0e812b2",
    "name": "Mountain",
    "number": 291,
    "setName": "Revised Edition"
  },
  {
    "uuid": "1b0f41e8-cf27-489b-812a-d566a75cf7f7",
    "name": "Mountain",
    "number": 292,
    "setName": "Revised Edition"
  },
  {
    "uuid": "b6e1c2e9-5572-4242-985d-f509d628092b",
    "name": "Forest",
    "number": 284,
    "setName": "Revised Edition"
  },
  {
    "uuid": "4d1e4241-42ef-4b51-8f9b-2ab6aca31dbb",
    "name": "Forest",
    "number": 285,
    "setName": "Revised Edition"
  },
  {
    "uuid": "b38ce16b-3258-4019-9e86-156e4738aa89",
    "name": "Forest",
    "number": 286,
    "setName": "Revised Edition"
  },
  {
    "uuid": "b8dc0941-5837-41cf-9ae6-5f8d1fe4dfe4",
    "name": "Necrite",
    "number": 43,
    "setName": "Fifth Edition"
  },
  {
    "uuid": "6cab2ebd-6ab7-4273-bda3-d7dea81b52c3",
    "name": "Plains",
    "number": 434,
    "setName": "Fifth Edition"
  },
  {
    "uuid": "600cc3f3-5400-40f4-99ff-8a4a905e79cf",
    "name": "Plains",
    "number": 435,
    "setName": "Fifth Edition"
  },
  {
    "uuid": "38789fff-0207-4b38-9bfd-5464ab62a533",
    "name": "Plains",
    "number": 436,
    "setName": "Fifth Edition"
  },
  {
    "uuid": "ef1c6830-758e-4242-85f7-3f20b872272c",
    "name": "Plains",
    "number": 437,
    "setName": "Fifth Edition"
  },
  {
    "uuid": "9cfd96cb-03d6-4845-8595-50bf17b35726",
    "name": "Combat Medic",
    "number": 133,
    "setName": "Fallen Empires"
  },
  {
    "uuid": "2a324a98-31c2-470a-b792-96b6b098a58c",
    "name": "Combat Medic",
    "number": 134,
    "setName": "Fallen Empires"
  },
  {
    "uuid": "ee9d1eac-3ac2-4881-a984-e40d87f60784",
    "name": "Combat Medic",
    "number": 135,
    "setName": "Fallen Empires"
  },
  {
    "uuid": "8f26c079-61ea-436d-89ae-2f1c6f863e91",
    "name": "Combat Medic",
    "number": 136,
    "setName": "Fallen Empires"
  },
  {
    "uuid": "0401bd23-9f81-40b7-a6c2-e3f9847d175c",
    "name": "Farrel's Zealot",
    "number": 139,
    "setName": "Fallen Empires"
  },
  {
    "uuid": "9e3aeee7-975c-419a-bfb3-45bb48ba6918",
    "name": "Farrel's Zealot",
    "number": 140,
    "setName": "Fallen Empires"
  },
  {
    "uuid": "54252fd2-21a6-40d1-8515-697f18c78a06",
    "name": "Farrel's Zealot",
    "number": 141,
    "setName": "Fallen Empires"
  },
  {
    "uuid": "f95d42d8-ba75-43bf-81b8-b02374f03e83",
    "name": "Icatian Infantry",
    "number": 144,
    "setName": "Fallen Empires"
  },
  {
    "uuid": "e0e4a9d2-ea43-46ac-8b8b-00496a478103",
    "name": "Icatian Infantry",
    "number": 145,
    "setName": "Fallen Empires"
  },
  {
    "uuid": "efac583d-a492-45ee-8c52-60a6422b2168",
    "name": "Icatian Infantry",
    "number": 146,
    "setName": "Fallen Empires"
  },
  {
    "uuid": "96b2a8d4-7c06-454c-9923-553294aada4f",
    "name": "Icatian Infantry",
    "number": 147,
    "setName": "Fallen Empires"
  },
  {
    "uuid": "f04b8356-2384-4743-80dd-f15ca7ec65f7",
    "name": "Icatian Javelineers",
    "number": 148,
    "setName": "Fallen Empires"
  },
  {
    "uuid": "c70f8f50-866a-4889-b986-48636225638a",
    "name": "Icatian Javelineers",
    "number": 149,
    "setName": "Fallen Empires"
  },
  {
    "uuid": "2be5ab7a-e7db-4c09-8df2-6fe55fa4a116",
    "name": "Icatian Javelineers",
    "number": 150,
    "setName": "Fallen Empires"
  },
  {
    "uuid": "b3d502d4-4a96-47b3-ae26-8b2c9f36623d",
    "name": "Icatian Moneychanger",
    "number": 152,
    "setName": "Fallen Empires"
  },
  {
    "uuid": "cbf9194c-8e50-4f50-9a87-3b339a5bc279",
    "name": "Icatian Moneychanger",
    "number": 153,
    "setName": "Fallen Empires"
  },
  {
    "uuid": "cf9521ae-6fac-4d86-9c60-adecaae5687d",
    "name": "Icatian Moneychanger",
    "number": 154,
    "setName": "Fallen Empires"
  },
  {
    "uuid": "86bf4aaa-a9b1-4798-a96b-c3e35afb77f7",
    "name": "Icatian Scout",
    "number": 157,
    "setName": "Fallen Empires"
  },
  {
    "uuid": "e9db3442-01cb-4db2-ac33-8eca6880c315",
    "name": "Icatian Scout",
    "number": 158,
    "setName": "Fallen Empires"
  },
  {
    "uuid": "6c461655-a05d-4eed-85b2-04d554f5ec50",
    "name": "Icatian Scout",
    "number": 159,
    "setName": "Fallen Empires"
  },
  {
    "uuid": "db63ad7f-6dc4-4249-b360-46ec5569a5a9",
    "name": "Icatian Scout",
    "number": 160,
    "setName": "Fallen Empires"
  },
  {
    "uuid": "ebd6e51e-f042-4673-a898-291607105829",
    "name": "Order of Leitbur",
    "number": 163,
    "setName": "Fallen Empires"
  },
  {
    "uuid": "fb537b5a-d725-420d-bc15-0d54ba23331c",
    "name": "Order of Leitbur",
    "number": 164,
    "setName": "Fallen Empires"
  },
  {
    "uuid": "1373dea4-3565-4612-8505-ab8fba3ddb67",
    "name": "Order of Leitbur",
    "number": 165,
    "setName": "Fallen Empires"
  },
  {
    "uuid": "4686bbb9-517f-4cce-aa7a-5db41e22c02b",
    "name": "High Tide",
    "number": 35,
    "setName": "Fallen Empires"
  },
  {
    "uuid": "c2813677-91cc-4c8b-a8ea-403fa776c9f0",
    "name": "High Tide",
    "number": 36,
    "setName": "Fallen Empires"
  },
  {
    "uuid": "4af611e3-45d6-4aee-bf48-56598b14a242",
    "name": "High Tide",
    "number": 37,
    "setName": "Fallen Empires"
  },
  {
    "uuid": "d6ffeab4-83b1-4414-ae72-e59a2354ea15",
    "name": "Homarid",
    "number": 38,
    "setName": "Fallen Empires"
  },
  {
    "uuid": "cbb6c13f-6019-4ad5-9de6-07844c361b41",
    "name": "Homarid",
    "number": 39,
    "setName": "Fallen Empires"
  },
  {
    "uuid": "33536b0a-1cff-481f-b695-eadaf6897bf0",
    "name": "Homarid",
    "number": 40,
    "setName": "Fallen Empires"
  },
  {
    "uuid": "18f1cc24-a5fc-43cc-b558-ac7901c48b81",
    "name": "Homarid",
    "number": 41,
    "setName": "Fallen Empires"
  },
  {
    "uuid": "627ca588-917f-4768-a69d-3d93c1210390",
    "name": "Homarid Warrior",
    "number": 44,
    "setName": "Fallen Empires"
  },
  {
    "uuid": "c9a9bdcf-543b-4140-b836-9e222a4a9233",
    "name": "Homarid Warrior",
    "number": 45,
    "setName": "Fallen Empires"
  },
  {
    "uuid": "fb1cccdc-9c4d-4ef3-807b-278e6fd23230",
    "name": "Homarid Warrior",
    "number": 46,
    "setName": "Fallen Empires"
  },
  {
    "uuid": "b1e96895-ef1d-44fa-b263-bce833fc3109",
    "name": "Merseine",
    "number": 47,
    "setName": "Fallen Empires"
  },
  {
    "uuid": "5c7fb804-65ba-477e-93e8-eea101c1521e",
    "name": "Merseine",
    "number": 48,
    "setName": "Fallen Empires"
  },
  {
    "uuid": "2dd197f8-ced0-461a-9672-2720a7b70803",
    "name": "Merseine",
    "number": 49,
    "setName": "Fallen Empires"
  },
  {
    "uuid": "ae7a9e9a-d1f8-44c5-9f79-a1201acfb5fc",
    "name": "Merseine",
    "number": 50,
    "setName": "Fallen Empires"
  },
  {
    "uuid": "2e820f3f-434e-4d09-91b9-0ebd6966b393",
    "name": "Tidal Flats",
    "number": 54,
    "setName": "Fallen Empires"
  },
  {
    "uuid": "50e7d376-3e22-44aa-9c96-a3b8eb1568fe",
    "name": "Tidal Flats",
    "number": 55,
    "setName": "Fallen Empires"
  },
  {
    "uuid": "445c4767-6261-449c-bb57-713e2a2bb0bf",
    "name": "Tidal Flats",
    "number": 56,
    "setName": "Fallen Empires"
  },
  {
    "uuid": "c107e82b-134a-4f2b-98c2-6537fae6a50d",
    "name": "Vodalian Mage",
    "number": 59,
    "setName": "Fallen Empires"
  },
  {
    "uuid": "a47beac4-161d-4f8e-9778-78293ff9b383",
    "name": "Vodalian Mage",
    "number": 60,
    "setName": "Fallen Empires"
  },
  {
    "uuid": "2b3cc91d-6f87-4f2e-b3c7-8181d19a1f0b",
    "name": "Vodalian Mage",
    "number": 61,
    "setName": "Fallen Empires"
  },
  {
    "uuid": "7eb50256-9113-4b03-bcef-9aea24be8493",
    "name": "Vodalian Soldiers",
    "number": 62,
    "setName": "Fallen Empires"
  },
  {
    "uuid": "bc85a68c-14d6-4447-a894-0e48d1662bc3",
    "name": "Vodalian Soldiers",
    "number": 63,
    "setName": "Fallen Empires"
  },
  {
    "uuid": "d8d1ceac-bb75-4c46-9ab4-1ef623ed3027",
    "name": "Vodalian Soldiers",
    "number": 64,
    "setName": "Fallen Empires"
  },
  {
    "uuid": "99d22f83-1171-4b5c-8a72-956db26d7c60",
    "name": "Vodalian Soldiers",
    "number": 65,
    "setName": "Fallen Empires"
  },
  {
    "uuid": "a98384d1-8e7d-4c41-9f23-47bc2ae2ad6a",
    "name": "Armor Thrull",
    "number": 1,
    "setName": "Fallen Empires"
  },
  {
    "uuid": "9c6120e6-ceb8-4eab-86b0-18d38ed97d8f",
    "name": "Armor Thrull",
    "number": 2,
    "setName": "Fallen Empires"
  },
  {
    "uuid": "18a91ed4-131e-455b-a3bd-0bd42aa754e5",
    "name": "Armor Thrull",
    "number": 3,
    "setName": "Fallen Empires"
  },
  {
    "uuid": "3d653ca4-c21f-4594-b900-2526a912001b",
    "name": "Armor Thrull",
    "number": 4,
    "setName": "Fallen Empires"
  },
  {
    "uuid": "0c1d5d13-0160-48cb-8fac-dd86102569b4",
    "name": "Basal Thrull",
    "number": 5,
    "setName": "Fallen Empires"
  },
  {
    "uuid": "fcf60db5-4f69-4db4-9dc2-1a6fbdec0429",
    "name": "Basal Thrull",
    "number": 6,
    "setName": "Fallen Empires"
  },
  {
    "uuid": "a86d9647-3a87-4620-aa07-26f996fc6fa3",
    "name": "Basal Thrull",
    "number": 7,
    "setName": "Fallen Empires"
  },
  {
    "uuid": "b6908e4c-f94d-4b0d-b9a5-64c04751f108",
    "name": "Basal Thrull",
    "number": 8,
    "setName": "Fallen Empires"
  },
  {
    "uuid": "eb9273ea-9a41-42e3-8c9c-0d50b127a818",
    "name": "Hymn to Tourach",
    "number": 12,
    "setName": "Fallen Empires"
  },
  {
    "uuid": "8601f082-7e43-44ef-97d0-dead272b7eb4",
    "name": "Hymn to Tourach",
    "number": 13,
    "setName": "Fallen Empires"
  },
  {
    "uuid": "58e125c6-81dc-4907-aad2-2ccd1cb166f0",
    "name": "Hymn to Tourach",
    "number": 14,
    "setName": "Fallen Empires"
  },
  {
    "uuid": "5bc50e08-dd6f-4ea7-87f8-cce72bafb928",
    "name": "Hymn to Tourach",
    "number": 15,
    "setName": "Fallen Empires"
  },
  {
    "uuid": "5be87527-3b8f-4529-afdb-a61ad4e787e1",
    "name": "Initiates of the Ebon Hand",
    "number": 16,
    "setName": "Fallen Empires"
  },
  {
    "uuid": "03c7dc01-46d0-42be-a1a9-48f69c846d12",
    "name": "Initiates of the Ebon Hand",
    "number": 17,
    "setName": "Fallen Empires"
  },
  {
    "uuid": "62982970-e8b8-4659-bcf0-21aab662d89d",
    "name": "Initiates of the Ebon Hand",
    "number": 18,
    "setName": "Fallen Empires"
  },
  {
    "uuid": "499a791f-ac4f-4a96-b59b-37043686a79a",
    "name": "Mindstab Thrull",
    "number": 19,
    "setName": "Fallen Empires"
  },
  {
    "uuid": "781e4b62-3910-4ba1-9e72-e99de8523a94",
    "name": "Mindstab Thrull",
    "number": 20,
    "setName": "Fallen Empires"
  },
  {
    "uuid": "923189c6-d407-4cc4-a062-2f09a4c7c1e3",
    "name": "Mindstab Thrull",
    "number": 21,
    "setName": "Fallen Empires"
  },
  {
    "uuid": "311d752a-ce8a-44cb-8aeb-1ed66705eb09",
    "name": "Necrite",
    "number": 22,
    "setName": "Fallen Empires"
  },
  {
    "uuid": "e19a4d41-e7b0-48b3-8e2e-9ac00f119ce2",
    "name": "Necrite",
    "number": 23,
    "setName": "Fallen Empires"
  },
  {
    "uuid": "660ae99f-4e61-45fd-9436-855a38289c8b",
    "name": "Necrite",
    "number": 24,
    "setName": "Fallen Empires"
  },
  {
    "uuid": "9e51f5d8-a7cc-4720-8af5-e002bcfd78a0",
    "name": "Order of the Ebon Hand",
    "number": 25,
    "setName": "Fallen Empires"
  },
  {
    "uuid": "60ffbb40-13c1-4d01-9421-95b2410d0d3b",
    "name": "Order of the Ebon Hand",
    "number": 26,
    "setName": "Fallen Empires"
  },
  {
    "uuid": "22c32774-5507-4a60-9ed2-2a570f6ff8e3",
    "name": "Order of the Ebon Hand",
    "number": 27,
    "setName": "Fallen Empires"
  },
  {
    "uuid": "fc0cb8f6-6ba7-402c-9829-251f7443e871",
    "name": "Brassclaw Orcs",
    "number": 100,
    "setName": "Fallen Empires"
  },
  {
    "uuid": "ac9d0354-9ddd-4fe1-8174-9d3686ca564c",
    "name": "Brassclaw Orcs",
    "number": 101,
    "setName": "Fallen Empires"
  },
  {
    "uuid": "a2c1e461-f74e-436c-a9df-aff197cf48e1",
    "name": "Brassclaw Orcs",
    "number": 102,
    "setName": "Fallen Empires"
  },
  {
    "uuid": "50f0f4fe-2dd0-42c1-8f68-5d24a8a9d07d",
    "name": "Brassclaw Orcs",
    "number": 103,
    "setName": "Fallen Empires"
  },
  {
    "uuid": "6fe77608-0b33-43f5-83fb-ae993ca1bf7c",
    "name": "Dwarven Soldier",
    "number": 107,
    "setName": "Fallen Empires"
  },
  {
    "uuid": "ea7e4c52-dfe1-4b15-a0d6-4f26c294426d",
    "name": "Dwarven Soldier",
    "number": 108,
    "setName": "Fallen Empires"
  },
  {
    "uuid": "872c5601-f356-4873-adf9-9a39536e7d4a",
    "name": "Dwarven Soldier",
    "number": 109,
    "setName": "Fallen Empires"
  },
  {
    "uuid": "2b710c21-e9f5-4660-80f6-2104ec65f63f",
    "name": "Goblin Chirurgeon",
    "number": 110,
    "setName": "Fallen Empires"
  },
  {
    "uuid": "982115b2-e1e7-4b2f-8eb6-a1633477d4a8",
    "name": "Goblin Chirurgeon",
    "number": 111,
    "setName": "Fallen Empires"
  },
  {
    "uuid": "c9740842-7955-4cf9-8f76-a426858360b1",
    "name": "Goblin Chirurgeon",
    "number": 112,
    "setName": "Fallen Empires"
  },
  {
    "uuid": "8837eaba-9602-4f63-9897-85583fcdcf51",
    "name": "Goblin Grenade",
    "number": 114,
    "setName": "Fallen Empires"
  },
  {
    "uuid": "dee262da-3002-4c08-8043-4e40e1b46822",
    "name": "Goblin Grenade",
    "number": 115,
    "setName": "Fallen Empires"
  },
  {
    "uuid": "1befdfc7-a1e3-4a2a-ad68-7d0fee170f3f",
    "name": "Goblin Grenade",
    "number": 116,
    "setName": "Fallen Empires"
  },
  {
    "uuid": "2a2c4e4b-e9a7-4180-927b-589514c21876",
    "name": "Goblin War Drums",
    "number": 118,
    "setName": "Fallen Empires"
  },
  {
    "uuid": "5988a3d2-748f-4642-9e33-293ddc568111",
    "name": "Goblin War Drums",
    "number": 119,
    "setName": "Fallen Empires"
  },
  {
    "uuid": "2232386e-986d-41b5-8b70-e086264f3277",
    "name": "Goblin War Drums",
    "number": 120,
    "setName": "Fallen Empires"
  },
  {
    "uuid": "2a0185f3-fbc0-44d7-b933-30627cda1bf9",
    "name": "Goblin War Drums",
    "number": 121,
    "setName": "Fallen Empires"
  },
  {
    "uuid": "cd3890d1-563d-4519-ab8c-913031d71918",
    "name": "Orcish Spy",
    "number": 124,
    "setName": "Fallen Empires"
  },
  {
    "uuid": "8b931cfd-b952-416c-ab2c-271ecaee8e0c",
    "name": "Orcish Spy",
    "number": 125,
    "setName": "Fallen Empires"
  },
  {
    "uuid": "28e08767-7e92-4ff4-b0d8-196565fbc23c",
    "name": "Orcish Spy",
    "number": 126,
    "setName": "Fallen Empires"
  },
  {
    "uuid": "1dbca765-8756-4e28-9faf-25714c9b8838",
    "name": "Orcish Veteran",
    "number": 127,
    "setName": "Fallen Empires"
  },
  {
    "uuid": "bc37db83-9efc-4d58-90c9-78eef9073ec2",
    "name": "Orcish Veteran",
    "number": 128,
    "setName": "Fallen Empires"
  },
  {
    "uuid": "334004e6-bf8c-4a4e-a30c-1537a99819c9",
    "name": "Orcish Veteran",
    "number": 129,
    "setName": "Fallen Empires"
  },
  {
    "uuid": "4990dd4b-2b18-4e4c-81d4-1cd8d746a7dc",
    "name": "Orcish Veteran",
    "number": 130,
    "setName": "Fallen Empires"
  },
  {
    "uuid": "9387105d-46d0-4db0-8980-dd0fded15eef",
    "name": "Elven Fortress",
    "number": 67,
    "setName": "Fallen Empires"
  },
  {
    "uuid": "091b5ed4-91f5-47c1-b1a1-5443f7346078",
    "name": "Elven Fortress",
    "number": 68,
    "setName": "Fallen Empires"
  },
  {
    "uuid": "960b542f-cb24-4f74-92da-d31559d87c2d",
    "name": "Elven Fortress",
    "number": 69,
    "setName": "Fallen Empires"
  },
  {
    "uuid": "c52743f0-5c5b-46b9-bbbd-67950d4c89e5",
    "name": "Elven Fortress",
    "number": 70,
    "setName": "Fallen Empires"
  },
  {
    "uuid": "e00455ac-c7ce-4916-98ed-cca9354e3f22",
    "name": "Elvish Hunter",
    "number": 72,
    "setName": "Fallen Empires"
  },
  {
    "uuid": "51ff096c-487f-42f9-a394-a298503391da",
    "name": "Elvish Hunter",
    "number": 73,
    "setName": "Fallen Empires"
  },
  {
    "uuid": "204c8aff-b103-4606-b86b-d794bc5dcde1",
    "name": "Elvish Hunter",
    "number": 74,
    "setName": "Fallen Empires"
  },
  {
    "uuid": "689cd2ed-be81-4769-a8ec-287946301396",
    "name": "Elvish Scout",
    "number": 75,
    "setName": "Fallen Empires"
  },
  {
    "uuid": "1faff88d-594e-473c-a2d1-cd60f51b2ee7",
    "name": "Elvish Scout",
    "number": 76,
    "setName": "Fallen Empires"
  },
  {
    "uuid": "d414bf5a-2604-426c-8c68-5c1696557b57",
    "name": "Elvish Scout",
    "number": 77,
    "setName": "Fallen Empires"
  },
  {
    "uuid": "4cda6d18-d4b1-4b8a-a72e-f90115adf4c3",
    "name": "Night Soil",
    "number": 80,
    "setName": "Fallen Empires"
  },
  {
    "uuid": "4f25a497-46dc-47aa-8586-d514578a6d25",
    "name": "Night Soil",
    "number": 81,
    "setName": "Fallen Empires"
  },
  {
    "uuid": "ee3eb61b-698c-42b1-8a33-0ce7c3829e07",
    "name": "Night Soil",
    "number": 82,
    "setName": "Fallen Empires"
  },
  {
    "uuid": "1691a9f4-4ea7-440f-9bdc-4214ab3c90f0",
    "name": "Spore Cloud",
    "number": 83,
    "setName": "Fallen Empires"
  },
  {
    "uuid": "17fe098c-c9b5-4bba-92b5-5720d6919073",
    "name": "Spore Cloud",
    "number": 84,
    "setName": "Fallen Empires"
  },
  {
    "uuid": "2c3070f8-6dae-4f22-b186-e2a3a9647cc5",
    "name": "Spore Cloud",
    "number": 85,
    "setName": "Fallen Empires"
  },
  {
    "uuid": "4caaf31b-86a9-485b-8da7-d5b526ed1233",
    "name": "Thallid",
    "number": 87,
    "setName": "Fallen Empires"
  },
  {
    "uuid": "80f8f778-ae31-45cd-b27f-f93a07853ede",
    "name": "Thallid",
    "number": 88,
    "setName": "Fallen Empires"
  },
  {
    "uuid": "2cf2f3da-9101-439d-8caa-910ff40bfbb3",
    "name": "Thallid",
    "number": 89,
    "setName": "Fallen Empires"
  },
  {
    "uuid": "01827286-b104-41c5-bac9-7c38414bc40e",
    "name": "Thallid",
    "number": 90,
    "setName": "Fallen Empires"
  },
  {
    "uuid": "16e61c00-3e94-4f6f-8515-65b430829e91",
    "name": "Thorn Thallid",
    "number": 96,
    "setName": "Fallen Empires"
  },
  {
    "uuid": "84283348-789b-4236-b406-7fc6338a867d",
    "name": "Thorn Thallid",
    "number": 97,
    "setName": "Fallen Empires"
  },
  {
    "uuid": "1537a338-3b68-4a41-bac6-554e8e530e46",
    "name": "Thorn Thallid",
    "number": 98,
    "setName": "Fallen Empires"
  },
  {
    "uuid": "1e8f50be-1629-40eb-8916-019903d2e6a4",
    "name": "Thorn Thallid",
    "number": 99,
    "setName": "Fallen Empires"
  },
  {
    "uuid": "158caa84-da2e-4c4c-b24d-0c035c900e20",
    "name": "Abbey Matron",
    "number": 102,
    "setName": "Homelands"
  },
  {
    "uuid": "fd950ddc-28f4-47a5-8fc1-d6f70002fceb",
    "name": "Abbey Matron",
    "number": 103,
    "setName": "Homelands"
  },
  {
    "uuid": "7f711ea8-a73a-42da-8bf7-101ba588f203",
    "name": "Aliban's Tower",
    "number": 76,
    "setName": "Homelands"
  },
  {
    "uuid": "d66e94b9-23f6-45a8-97bd-602e3aaa6711",
    "name": "Aliban's Tower",
    "number": 77,
    "setName": "Homelands"
  },
  {
    "uuid": "87e24788-cc7c-4f5d-84d8-dcb35e10626f",
    "name": "Ambush Party",
    "number": 79,
    "setName": "Homelands"
  },
  {
    "uuid": "ea200e93-e5bd-4777-b47e-e53849a89fe7",
    "name": "Ambush Party",
    "number": 80,
    "setName": "Homelands"
  },
  {
    "uuid": "882e3c69-dca7-4c0a-8f8c-984250e6a867",
    "name": "Anaba Bodyguard",
    "number": 82,
    "setName": "Homelands"
  },
  {
    "uuid": "56a54048-4640-499b-a1c3-192917c25169",
    "name": "Anaba Bodyguard",
    "number": 83,
    "setName": "Homelands"
  },
  {
    "uuid": "c55d086a-d848-43bc-8c1e-de96d10877e1",
    "name": "Anaba Shaman",
    "number": 84,
    "setName": "Homelands"
  },
  {
    "uuid": "4b456355-9f73-45c2-9554-6e6b20d949a1",
    "name": "Anaba Shaman",
    "number": 85,
    "setName": "Homelands"
  },
  {
    "uuid": "91170faf-3143-4fa8-88d6-eef72e1f5459",
    "name": "Aysen Bureaucrats",
    "number": 104,
    "setName": "Homelands"
  },
  {
    "uuid": "7ca3fa70-50b3-4157-afda-fe58bf72ee16",
    "name": "Aysen Bureaucrats",
    "number": 105,
    "setName": "Homelands"
  },
  {
    "uuid": "07159586-270e-4a3e-9b21-0d74cf3e49d7",
    "name": "Carapace",
    "number": 54,
    "setName": "Homelands"
  },
  {
    "uuid": "6d51d61e-c010-4b4e-a337-20ba5eb845e3",
    "name": "Carapace",
    "number": 55,
    "setName": "Homelands"
  },
  {
    "uuid": "0c6f0614-06dc-4bd2-b8b9-d951ae27db21",
    "name": "Cemetery Gate",
    "number": 4,
    "setName": "Homelands"
  },
  {
    "uuid": "4a7b2cc1-cb0b-4cb8-963f-453a1d5b0e3c",
    "name": "Cemetery Gate",
    "number": 5,
    "setName": "Homelands"
  },
  {
    "uuid": "c20a8ed9-db1e-4ce8-bfb3-92604a577df7",
    "name": "Dark Maze",
    "number": 30,
    "setName": "Homelands"
  },
  {
    "uuid": "d3d68a76-c843-4c67-90a7-2f79295798d0",
    "name": "Dark Maze",
    "number": 31,
    "setName": "Homelands"
  },
  {
    "uuid": "547c10ea-8ace-4496-8b99-61863c0cec1b",
    "name": "Dry Spell",
    "number": 7,
    "setName": "Homelands"
  },
  {
    "uuid": "997ea663-40a1-49b7-80f1-2e1febc1b6fa",
    "name": "Dry Spell",
    "number": 8,
    "setName": "Homelands"
  },
  {
    "uuid": "4db9aa47-f42b-41e9-948c-8b012c3809fb",
    "name": "Dwarven Trader",
    "number": 91,
    "setName": "Homelands"
  },
  {
    "uuid": "8e6d9318-30d6-473f-b576-cc249454440f",
    "name": "Dwarven Trader",
    "number": 92,
    "setName": "Homelands"
  },
  {
    "uuid": "096e41d6-79c3-463f-ae63-872c3d8729a7",
    "name": "Feast of the Unicorn",
    "number": 9,
    "setName": "Homelands"
  },
  {
    "uuid": "f05a2735-0f0d-46b5-9c2e-6c0ed8d8944d",
    "name": "Feast of the Unicorn",
    "number": 10,
    "setName": "Homelands"
  },
  {
    "uuid": "9f4a595e-51f6-4e84-aa3a-5d9c18dc8b3f",
    "name": "Folk of An-Havva",
    "number": 58,
    "setName": "Homelands"
  },
  {
    "uuid": "4118c563-08a7-4654-973e-ab9c454f00f9",
    "name": "Folk of An-Havva",
    "number": 59,
    "setName": "Homelands"
  },
  {
    "uuid": "bce05870-74d3-43f1-92d0-dc1744c0138d",
    "name": "Giant Albatross",
    "number": 33,
    "setName": "Homelands"
  },
  {
    "uuid": "e26334fc-d8ee-4b8c-ac50-5a304fae6c60",
    "name": "Giant Albatross",
    "number": 34,
    "setName": "Homelands"
  },
  {
    "uuid": "085973eb-56cd-4bb5-aefd-bdf36f2d2a3e",
    "name": "Hungry Mist",
    "number": 60,
    "setName": "Homelands"
  },
  {
    "uuid": "a486eab3-3a09-4bd5-ad97-8ec620434f7e",
    "name": "Hungry Mist",
    "number": 61,
    "setName": "Homelands"
  },
  {
    "uuid": "eb8c1786-a2c1-43f9-9cef-8c4542833093",
    "name": "Labyrinth Minotaur",
    "number": 37,
    "setName": "Homelands"
  },
  {
    "uuid": "0663c756-9db9-4298-8a6e-a1af935286a0",
    "name": "Labyrinth Minotaur",
    "number": 38,
    "setName": "Homelands"
  },
  {
    "uuid": "3d2cc591-3a81-468a-91a4-3c3aac83a21a",
    "name": "Memory Lapse",
    "number": 40,
    "setName": "Homelands"
  },
  {
    "uuid": "6c8b5df3-6153-470e-be9c-f38d3cf66081",
    "name": "Memory Lapse",
    "number": 41,
    "setName": "Homelands"
  },
  {
    "uuid": "7c2c7004-691b-4385-ad9b-60b93d474ebd",
    "name": "Mesa Falcon",
    "number": 112,
    "setName": "Homelands"
  },
  {
    "uuid": "04d2f5e2-fb95-48b0-b7bf-689d45fa8970",
    "name": "Mesa Falcon",
    "number": 113,
    "setName": "Homelands"
  },
  {
    "uuid": "5b742d75-860d-4b90-89cb-4292f18aed39",
    "name": "Reef Pirates",
    "number": 45,
    "setName": "Homelands"
  },
  {
    "uuid": "b7c5e641-0276-4321-b486-ef8602a5f185",
    "name": "Reef Pirates",
    "number": 46,
    "setName": "Homelands"
  },
  {
    "uuid": "68224871-d4c2-4b43-9ab8-c0685588b035",
    "name": "Samite Alchemist",
    "number": 116,
    "setName": "Homelands"
  },
  {
    "uuid": "0545fc43-9c67-4ad4-b1d9-6b57b53321af",
    "name": "Samite Alchemist",
    "number": 117,
    "setName": "Homelands"
  },
  {
    "uuid": "3c745c2c-4311-412d-a137-02bf6d106e46",
    "name": "Sengir Bats",
    "number": 20,
    "setName": "Homelands"
  },
  {
    "uuid": "2ddb981a-d9e3-4efe-a383-5c98ee3b0b84",
    "name": "Sengir Bats",
    "number": 21,
    "setName": "Homelands"
  },
  {
    "uuid": "30785867-32f7-46c9-94c2-775078e792ae",
    "name": "Shrink",
    "number": 70,
    "setName": "Homelands"
  },
  {
    "uuid": "d9f4eaa1-3c2b-4f5d-8d4e-98d153899873",
    "name": "Shrink",
    "number": 71,
    "setName": "Homelands"
  },
  {
    "uuid": "2cb8cc6c-7e24-4629-a9ce-5f717f236c37",
    "name": "Torture",
    "number": 23,
    "setName": "Homelands"
  },
  {
    "uuid": "4c7e94a3-192f-483b-9a62-b94904ba3464",
    "name": "Torture",
    "number": 24,
    "setName": "Homelands"
  },
  {
    "uuid": "fdcc821b-8125-4585-ba44-4bf8c1873fbf",
    "name": "Trade Caravan",
    "number": 123,
    "setName": "Homelands"
  },
  {
    "uuid": "e60ddb1e-e607-4080-849c-3e1a79052729",
    "name": "Trade Caravan",
    "number": 124,
    "setName": "Homelands"
  },
  {
    "uuid": "83ce80dc-86d9-4613-af98-c385ca5d1cf4",
    "name": "Willow Faerie",
    "number": 73,
    "setName": "Homelands"
  },
  {
    "uuid": "0e777dfe-44ed-4e73-bf77-ef4c667092d4",
    "name": "Willow Faerie",
    "number": 74,
    "setName": "Homelands"
  },
  {
    "uuid": "7b68bdb0-41cc-48f6-905e-7da1ff4ba5e0",
    "name": "Plains",
    "number": 343,
    "setName": "Ice Age"
  },
  {
    "uuid": "df3e94f7-9f97-4652-a1f1-381feb15f688",
    "name": "Plains",
    "number": 344,
    "setName": "Ice Age"
  },
  {
    "uuid": "27ac1fc7-0698-4a94-8353-cc4c13bd6ffa",
    "name": "Plains",
    "number": 345,
    "setName": "Ice Age"
  },
  {
    "uuid": "ef2d6fc9-ddad-4dd2-b218-afa1a5449b7e",
    "name": "Island",
    "number": 334,
    "setName": "Ice Age"
  },
  {
    "uuid": "61a467ab-4460-4e5e-94c1-8150bfe0c954",
    "name": "Island",
    "number": 335,
    "setName": "Ice Age"
  },
  {
    "uuid": "82f11c42-9d67-4833-9519-e165e6a7e9c4",
    "name": "Island",
    "number": 336,
    "setName": "Ice Age"
  },
  {
    "uuid": "4695653a-5c4c-4ff3-b80c-f4b6c685f370",
    "name": "Swamp",
    "number": 353,
    "setName": "Ice Age"
  },
  {
    "uuid": "6a90b49f-53b3-4ce0-92c1-bcd76d6981ea",
    "name": "Swamp",
    "number": 354,
    "setName": "Ice Age"
  },
  {
    "uuid": "ddca7e2e-bb0a-47ed-ade3-31900da992dc",
    "name": "Swamp",
    "number": 355,
    "setName": "Ice Age"
  },
  {
    "uuid": "4ecf39c3-3b5f-4263-a7b5-9881bded3494",
    "name": "Mountain",
    "number": 340,
    "setName": "Ice Age"
  },
  {
    "uuid": "2eb15b42-be2a-4663-b064-aad6c7cb2714",
    "name": "Mountain",
    "number": 341,
    "setName": "Ice Age"
  },
  {
    "uuid": "17ac61e4-b543-4c37-9bfa-43f0c928152d",
    "name": "Mountain",
    "number": 342,
    "setName": "Ice Age"
  },
  {
    "uuid": "fbdcbd97-90a9-45ea-94f6-2a1c6faaf965",
    "name": "Forest",
    "number": 328,
    "setName": "Ice Age"
  },
  {
    "uuid": "b346b784-7bde-49d0-bfa9-56236cbe19d9",
    "name": "Forest",
    "number": 329,
    "setName": "Ice Age"
  },
  {
    "uuid": "768c4d8f-5700-4f0a-9ff2-58422aeb1dac",
    "name": "Forest",
    "number": 330,
    "setName": "Ice Age"
  },
  {
    "uuid": "35a8080f-ca3c-46fe-81cf-003ac7ba7f24",
    "name": "Aesthir Glider",
    "number": 156,
    "setName": "Alliances"
  },
  {
    "uuid": "435b78cb-5acc-4d14-966f-979322d99114",
    "name": "Aesthir Glider",
    "number": 157,
    "setName": "Alliances"
  },
  {
    "uuid": "626225b9-2cfd-4cf5-b11c-89e5a231b09e",
    "name": "Bestial Fury",
    "number": 99,
    "setName": "Alliances"
  },
  {
    "uuid": "7271e0d7-0c55-4020-97de-b8a27ba51d4b",
    "name": "Bestial Fury",
    "number": 100,
    "setName": "Alliances"
  },
  {
    "uuid": "add1b999-5c3f-4187-adac-ed1037406b3f",
    "name": "Deadly Insect",
    "number": 64,
    "setName": "Alliances"
  },
  {
    "uuid": "030963d9-b59f-4ccb-abed-d817a4bc4e05",
    "name": "Deadly Insect",
    "number": 65,
    "setName": "Alliances"
  },
  {
    "uuid": "ad9f1b09-73c2-43c5-a28b-4a40fff7b727",
    "name": "Elvish Ranger",
    "number": 67,
    "setName": "Alliances"
  },
  {
    "uuid": "5eac1616-d764-4e62-9fc6-939c28b75f52",
    "name": "Elvish Ranger",
    "number": 68,
    "setName": "Alliances"
  },
  {
    "uuid": "7c185b4d-8da5-4b8a-85f0-5f0622c7bade",
    "name": "Feast or Famine",
    "number": 8,
    "setName": "Alliances"
  },
  {
    "uuid": "f4ac1586-c3d5-4add-bade-b527dcf4a391",
    "name": "Feast or Famine",
    "number": 9,
    "setName": "Alliances"
  },
  {
    "uuid": "13e53d6c-67f5-4d74-8205-6325c75d1d07",
    "name": "Fevered Strength",
    "number": 10,
    "setName": "Alliances"
  },
  {
    "uuid": "ca621684-1e0d-44d3-8bc4-f77e354b9ab4",
    "name": "Fevered Strength",
    "number": 11,
    "setName": "Alliances"
  },
  {
    "uuid": "a12e624c-8879-4e60-a1be-286abc5e0106",
    "name": "Foresight",
    "number": 43,
    "setName": "Alliances"
  },
  {
    "uuid": "a4fe74e0-bcde-4176-8da5-38e78daad5e5",
    "name": "Foresight",
    "number": 44,
    "setName": "Alliances"
  },
  {
    "uuid": "778b028f-fa4e-4638-82b4-fb287223ea20",
    "name": "Fyndhorn Druid",
    "number": 70,
    "setName": "Alliances"
  },
  {
    "uuid": "f79d880c-0052-4e2c-92aa-bf3cbd107cbd",
    "name": "Fyndhorn Druid",
    "number": 71,
    "setName": "Alliances"
  },
  {
    "uuid": "344b4613-17f8-4c8b-b5bc-f773a8f8007a",
    "name": "Gorilla Berserkers",
    "number": 75,
    "setName": "Alliances"
  },
  {
    "uuid": "e3c32b65-58e7-455b-9a30-7a2edcc27b9d",
    "name": "Gorilla Berserkers",
    "number": 76,
    "setName": "Alliances"
  },
  {
    "uuid": "47f1eedd-7021-4cce-a808-2e9384a5ef15",
    "name": "Gorilla Chieftain",
    "number": 77,
    "setName": "Alliances"
  },
  {
    "uuid": "6bdde5d2-3dd2-4eaa-9c52-4ad400b56ed1",
    "name": "Gorilla Chieftain",
    "number": 78,
    "setName": "Alliances"
  },
  {
    "uuid": "613762ea-6111-4f74-bea2-c13b76e0751c",
    "name": "Gorilla War Cry",
    "number": 108,
    "setName": "Alliances"
  },
  {
    "uuid": "e14752ef-bebf-4c31-b130-32167473482f",
    "name": "Gorilla War Cry",
    "number": 109,
    "setName": "Alliances"
  },
  {
    "uuid": "0fd7536a-5417-4de0-9a48-82a5f82d9af4",
    "name": "Kjeldoran Escort",
    "number": 133,
    "setName": "Alliances"
  },
  {
    "uuid": "70f54ca5-1f1b-40c7-ad0b-569c54d1b5aa",
    "name": "Kjeldoran Escort",
    "number": 134,
    "setName": "Alliances"
  },
  {
    "uuid": "d0acdf4d-6fdd-4430-9204-9c80dc8fb387",
    "name": "Kjeldoran Pride",
    "number": 136,
    "setName": "Alliances"
  },
  {
    "uuid": "a88d1c1a-b53e-459b-8a83-4d559177188a",
    "name": "Kjeldoran Pride",
    "number": 137,
    "setName": "Alliances"
  },
  {
    "uuid": "6ab5775a-7138-4526-83fe-350127695224",
    "name": "Martyrdom",
    "number": 138,
    "setName": "Alliances"
  },
  {
    "uuid": "07f91817-8e79-4885-a57b-d26241c4791f",
    "name": "Martyrdom",
    "number": 139,
    "setName": "Alliances"
  },
  {
    "uuid": "45a35751-a232-40ba-a73b-d3ca7a44867d",
    "name": "Noble Steeds",
    "number": 140,
    "setName": "Alliances"
  },
  {
    "uuid": "684bc5b2-c5fb-4340-9c11-73891adb4b93",
    "name": "Noble Steeds",
    "number": 141,
    "setName": "Alliances"
  },
  {
    "uuid": "9a05d428-7c70-4813-8e6c-20278cc0b0bd",
    "name": "Phantasmal Fiend",
    "number": 20,
    "setName": "Alliances"
  },
  {
    "uuid": "2c2842a1-25b8-4c4b-b5f8-496929288ff3",
    "name": "Phantasmal Fiend",
    "number": 21,
    "setName": "Alliances"
  },
  {
    "uuid": "b9734708-d8e3-4d72-86b9-dd91fcfab5b4",
    "name": "Phyrexian Boon",
    "number": 22,
    "setName": "Alliances"
  },
  {
    "uuid": "6f82668b-50b3-4746-b7fd-82f8560ebd95",
    "name": "Phyrexian Boon",
    "number": 23,
    "setName": "Alliances"
  },
  {
    "uuid": "e7a83384-8762-4028-8cab-b690593790a6",
    "name": "Phyrexian War Beast",
    "number": 169,
    "setName": "Alliances"
  },
  {
    "uuid": "e7d651f6-50be-4df9-80f8-4c62bb860e71",
    "name": "Phyrexian War Beast",
    "number": 170,
    "setName": "Alliances"
  },
  {
    "uuid": "c0b26881-3ad7-4d70-8051-a7e222d910bf",
    "name": "Reinforcements",
    "number": 142,
    "setName": "Alliances"
  },
  {
    "uuid": "d734086b-a0fb-4504-96e5-89842aa587b3",
    "name": "Reinforcements",
    "number": 143,
    "setName": "Alliances"
  },
  {
    "uuid": "027e03e1-1a39-47ba-b206-44d022b4c346",
    "name": "Royal Herbalist",
    "number": 147,
    "setName": "Alliances"
  },
  {
    "uuid": "6456ee12-7c09-434e-9028-613506ef7ff6",
    "name": "Royal Herbalist",
    "number": 148,
    "setName": "Alliances"
  },
  {
    "uuid": "d46accc8-b926-4443-bc12-dfd5870b2d2e",
    "name": "Soldevi Heretic",
    "number": 49,
    "setName": "Alliances"
  },
  {
    "uuid": "9613ca47-c9d1-4485-b0bd-71b0b587567e",
    "name": "Soldevi Heretic",
    "number": 50,
    "setName": "Alliances"
  },
  {
    "uuid": "07392841-2df5-47f1-9868-edae3376e35a",
    "name": "Soldevi Sage",
    "number": 51,
    "setName": "Alliances"
  },
  {
    "uuid": "53dc5902-817c-4a85-a0b9-20555574fad1",
    "name": "Soldevi Sage",
    "number": 52,
    "setName": "Alliances"
  },
  {
    "uuid": "f9a45644-549a-4eaa-8367-b170027bd5a2",
    "name": "Stench of Decay",
    "number": 27,
    "setName": "Alliances"
  },
  {
    "uuid": "b4b93845-f17a-4892-a1ce-a4630dced218",
    "name": "Stench of Decay",
    "number": 28,
    "setName": "Alliances"
  },
  {
    "uuid": "a2d4ea78-16f1-46ac-8a60-db20c37aad5e",
    "name": "Storm Crow",
    "number": 54,
    "setName": "Alliances"
  },
  {
    "uuid": "2dbf72f7-2360-4105-beae-946556884e40",
    "name": "Storm Crow",
    "number": 55,
    "setName": "Alliances"
  },
  {
    "uuid": "92c30a0a-3083-4d9f-9fe0-de5d6294f80e",
    "name": "Storm Shaman",
    "number": 118,
    "setName": "Alliances"
  },
  {
    "uuid": "ac2fbe77-8757-4333-a083-975d5c3c6433",
    "name": "Swamp Mosquito",
    "number": 31,
    "setName": "Alliances"
  },
  {
    "uuid": "a774c426-ec0e-48de-b00f-5a05cc6dc34b",
    "name": "Taste of Paradise",
    "number": 85,
    "setName": "Alliances"
  },
  {
    "uuid": "6e1ecb9a-7443-49cb-8197-ef180124aabb",
    "name": "Veteran's Voice",
    "number": 124,
    "setName": "Alliances"
  },
  {
    "uuid": "94fc4db5-08e5-4cf8-bf47-f7c6a58162b2",
    "name": "Yavimaya Ancients",
    "number": 91,
    "setName": "Alliances"
  },
  {
    "uuid": "888f32ad-3bdd-4c46-b3f0-522ac9763591",
    "name": "Plains",
    "number": 306,
    "setName": "Mirage"
  },
  {
    "uuid": "b078ef66-a83b-4e12-bcba-838bc3809322",
    "name": "Plains",
    "number": 307,
    "setName": "Mirage"
  },
  {
    "uuid": "ac15978d-41e6-4eaa-9456-0de3b912d437",
    "name": "Plains",
    "number": 308,
    "setName": "Mirage"
  },
  {
    "uuid": "81bbbf38-5d1a-4013-aff9-6167709897f0",
    "name": "Plains",
    "number": 309,
    "setName": "Mirage"
  },
  {
    "uuid": "df84bf1b-8698-4c3e-baa9-926f0efc6a12",
    "name": "Island",
    "number": 297,
    "setName": "Mirage"
  },
  {
    "uuid": "776912e7-fa16-4d71-b830-0a5d35f38297",
    "name": "Island",
    "number": 298,
    "setName": "Mirage"
  },
  {
    "uuid": "1e571f07-167f-4a7d-8f98-0c98d7d15e81",
    "name": "Island",
    "number": 299,
    "setName": "Mirage"
  },
  {
    "uuid": "a39fc1e0-caf0-4cfa-bbf2-fea7ca32c00d",
    "name": "Island",
    "number": 300,
    "setName": "Mirage"
  },
  {
    "uuid": "f2d28477-8be1-4caf-8185-64f47905ccb1",
    "name": "Swamp",
    "number": 311,
    "setName": "Mirage"
  },
  {
    "uuid": "2c4be2d6-d168-4e67-8d75-a04f637b56dd",
    "name": "Swamp",
    "number": 312,
    "setName": "Mirage"
  },
  {
    "uuid": "65181db5-3fc5-497b-ba61-385efdf740ed",
    "name": "Swamp",
    "number": 313,
    "setName": "Mirage"
  },
  {
    "uuid": "5083de34-d127-45df-9252-ff09b5cf8b47",
    "name": "Swamp",
    "number": 314,
    "setName": "Mirage"
  },
  {
    "uuid": "97004cdc-0baf-415d-8e87-7f36667c4628",
    "name": "Mountain",
    "number": 301,
    "setName": "Mirage"
  },
  {
    "uuid": "207a468f-79c3-486e-ac5a-4516361b7b4d",
    "name": "Mountain",
    "number": 302,
    "setName": "Mirage"
  },
  {
    "uuid": "681b9c8a-6140-4086-bc72-37f0058a8e9f",
    "name": "Mountain",
    "number": 303,
    "setName": "Mirage"
  },
  {
    "uuid": "1cef9230-34fa-496f-8835-5dfaac627f70",
    "name": "Mountain",
    "number": 304,
    "setName": "Mirage"
  },
  {
    "uuid": "a0ae7a81-9a61-4112-af22-369c525b2eb1",
    "name": "Forest",
    "number": 292,
    "setName": "Mirage"
  },
  {
    "uuid": "bb6b3f80-20bf-4693-b106-cfb31a3d7f83",
    "name": "Forest",
    "number": 293,
    "setName": "Mirage"
  },
  {
    "uuid": "d8a67bf6-818b-4afe-af15-3d955dc5e884",
    "name": "Forest",
    "number": 294,
    "setName": "Mirage"
  },
  {
    "uuid": "95dfef30-acca-4b15-a05e-d33289055218",
    "name": "Forest",
    "number": 295,
    "setName": "Mirage"
  },
  {
    "uuid": "68939020-eb6a-4d77-a850-4df96cf01918",
    "name": "Elven Cache",
    "number": 89,
    "setName": "Portal"
  },
  {
    "uuid": "32be5204-f253-43fa-aaa9-6f2daa19ba19",
    "name": "Hand of Death",
    "number": 18,
    "setName": "Portal"
  },
  {
    "uuid": "27f136b8-52be-49b9-919b-2b9785254350",
    "name": "Hand of Death",
    "number": 19,
    "setName": "Portal"
  },
  {
    "uuid": "90d35453-7fe3-4053-aad9-a124ecc7dcf0",
    "name": "Plains",
    "number": 215,
    "setName": "Portal"
  },
  {
    "uuid": "a1de52fb-796c-4146-b592-00ce0cc5a187",
    "name": "Plains",
    "number": 216,
    "setName": "Portal"
  },
  {
    "uuid": "3a48c07b-ddbe-4251-b9e7-38ea60d66e72",
    "name": "Plains",
    "number": 217,
    "setName": "Portal"
  },
  {
    "uuid": "3e511581-2739-445e-b486-c2b2d15c9be4",
    "name": "Plains",
    "number": 218,
    "setName": "Portal"
  },
  {
    "uuid": "e98d1e6f-5902-4e67-91a6-30eb5c3ce4a1",
    "name": "Island",
    "number": 207,
    "setName": "Portal"
  },
  {
    "uuid": "d7fcc1eb-8689-4b0f-9e56-cfeb4c8c1edb",
    "name": "Island",
    "number": 208,
    "setName": "Portal"
  },
  {
    "uuid": "36da118a-d54d-489d-85da-5cbcd0d80519",
    "name": "Island",
    "number": 209,
    "setName": "Portal"
  },
  {
    "uuid": "f591c9c1-ce72-4b68-b32f-4d048dcfa495",
    "name": "Island",
    "number": 210,
    "setName": "Portal"
  },
  {
    "uuid": "ec0da69e-4ab6-4ef1-a7ae-4d6c47172c81",
    "name": "Swamp",
    "number": 219,
    "setName": "Portal"
  },
  {
    "uuid": "dd6c1c8d-dd83-4dbe-b022-495edd1a909f",
    "name": "Swamp",
    "number": 220,
    "setName": "Portal"
  },
  {
    "uuid": "2c0c5cf6-f91d-45eb-a5c1-5aacec9cda69",
    "name": "Swamp",
    "number": 221,
    "setName": "Portal"
  },
  {
    "uuid": "5fd26e01-cbd2-4787-bc01-aff58c13840f",
    "name": "Swamp",
    "number": 222,
    "setName": "Portal"
  },
  {
    "uuid": "17cf7ce4-d5d7-49f2-a7e4-021d1a2d58c5",
    "name": "Mountain",
    "number": 211,
    "setName": "Portal"
  },
  {
    "uuid": "b86914cf-0808-4c7c-b364-1539087688bc",
    "name": "Mountain",
    "number": 212,
    "setName": "Portal"
  },
  {
    "uuid": "ce16a4aa-7476-4999-ad1f-5d8bc27bf418",
    "name": "Mountain",
    "number": 213,
    "setName": "Portal"
  },
  {
    "uuid": "26c5f3d2-6728-47b9-8178-a640e23ba30a",
    "name": "Mountain",
    "number": 214,
    "setName": "Portal"
  },
  {
    "uuid": "40146f61-d3f0-45e7-82b5-788ff7b0e520",
    "name": "Forest",
    "number": 203,
    "setName": "Portal"
  },
  {
    "uuid": "448f15f2-abfa-4176-856f-be815152b620",
    "name": "Forest",
    "number": 204,
    "setName": "Portal"
  },
  {
    "uuid": "b37ea002-f81e-4fa6-ac24-bba1cb6d7edf",
    "name": "Forest",
    "number": 205,
    "setName": "Portal"
  },
  {
    "uuid": "b44a98ba-d999-41b7-a5c6-f3efa6056800",
    "name": "Forest",
    "number": 206,
    "setName": "Portal"
  },
  {
    "uuid": "62e339a9-3f9b-401e-a459-dc3affc9a114",
    "name": "Plains",
    "number": 324,
    "setName": "Tempest"
  },
  {
    "uuid": "da37f78a-a0a6-4ca3-921c-4bc2c17ccda6",
    "name": "Plains",
    "number": 325,
    "setName": "Tempest"
  },
  {
    "uuid": "3bd35bef-1702-4b3d-b149-8761c5cc5ed9",
    "name": "Plains",
    "number": 326,
    "setName": "Tempest"
  },
  {
    "uuid": "c7f7baf6-de14-40f8-871f-dda889672608",
    "name": "Plains",
    "number": 327,
    "setName": "Tempest"
  },
  {
    "uuid": "22578bc8-10c6-4598-82bc-70e970a8f518",
    "name": "Island",
    "number": 313,
    "setName": "Tempest"
  },
  {
    "uuid": "3f891c3f-82e2-4f9d-ae4b-443fce0bdd71",
    "name": "Island",
    "number": 314,
    "setName": "Tempest"
  },
  {
    "uuid": "b38e48ff-17c8-470c-ba8b-966da1777e77",
    "name": "Island",
    "number": 315,
    "setName": "Tempest"
  },
  {
    "uuid": "5e6e59d7-5038-46b4-9f60-3d9d0cbf0a4e",
    "name": "Island",
    "number": 316,
    "setName": "Tempest"
  },
  {
    "uuid": "5912d2aa-fe91-4cea-9c7a-6dca745f8560",
    "name": "Swamp",
    "number": 334,
    "setName": "Tempest"
  },
  {
    "uuid": "000366c8-7a43-49d7-a103-ac5bd7efd9aa",
    "name": "Swamp",
    "number": 335,
    "setName": "Tempest"
  },
  {
    "uuid": "c96dbfea-3b79-4e5b-a356-3c04d1e78e83",
    "name": "Swamp",
    "number": 336,
    "setName": "Tempest"
  },
  {
    "uuid": "9330376c-0242-4e28-b535-26c84b43c3e6",
    "name": "Swamp",
    "number": 337,
    "setName": "Tempest"
  },
  {
    "uuid": "9d6dc341-89dc-4e99-baa2-ad0ae59f0e94",
    "name": "Mountain",
    "number": 319,
    "setName": "Tempest"
  },
  {
    "uuid": "676fb0ed-5a19-4fde-b2c4-f46c7e0915f8",
    "name": "Mountain",
    "number": 320,
    "setName": "Tempest"
  },
  {
    "uuid": "9515ced4-b679-48f0-bf62-8b7baef5e1c2",
    "name": "Mountain",
    "number": 321,
    "setName": "Tempest"
  },
  {
    "uuid": "23e043bf-a6d7-4778-8460-13bdf38b7d39",
    "name": "Mountain",
    "number": 322,
    "setName": "Tempest"
  },
  {
    "uuid": "36b3ffbd-3f3e-4fca-80c2-94f9fdc198a5",
    "name": "Forest",
    "number": 308,
    "setName": "Tempest"
  },
  {
    "uuid": "72bac71a-c326-4640-bdf8-43682f59060b",
    "name": "Forest",
    "number": 309,
    "setName": "Tempest"
  },
  {
    "uuid": "6b667225-a808-43e9-955e-6c4e7ecd53f2",
    "name": "Forest",
    "number": 310,
    "setName": "Tempest"
  },
  {
    "uuid": "32411c3a-da2b-4316-9848-971e90951303",
    "name": "Forest",
    "number": 311,
    "setName": "Tempest"
  },
  {
    "uuid": "27ecf285-c48f-4ac3-9b75-0ee0ff052767",
    "name": "Plains",
    "number": 160,
    "setName": "Portal Second Age"
  },
  {
    "uuid": "8a136975-e513-4c50-9d4a-855d03630470",
    "name": "Plains",
    "number": 161,
    "setName": "Portal Second Age"
  },
  {
    "uuid": "f67f2ecd-d5fb-406b-b14d-34eb087eb08b",
    "name": "Plains",
    "number": 162,
    "setName": "Portal Second Age"
  },
  {
    "uuid": "b0a83b1a-a734-4726-9d14-c75ef04798d1",
    "name": "Island",
    "number": 154,
    "setName": "Portal Second Age"
  },
  {
    "uuid": "b165ada0-7f52-4047-8596-c54247d13704",
    "name": "Island",
    "number": 155,
    "setName": "Portal Second Age"
  },
  {
    "uuid": "3cf8ecec-8925-470b-994d-79694d056834",
    "name": "Island",
    "number": 156,
    "setName": "Portal Second Age"
  },
  {
    "uuid": "80c0bd18-fdee-4cb2-8a7e-dd86bb8a6bbe",
    "name": "Swamp",
    "number": 163,
    "setName": "Portal Second Age"
  },
  {
    "uuid": "adb62dd9-266b-4de9-8a11-3228b5f1e03a",
    "name": "Swamp",
    "number": 164,
    "setName": "Portal Second Age"
  },
  {
    "uuid": "c103ed69-b73b-4789-a28d-1fd071bc9029",
    "name": "Swamp",
    "number": 165,
    "setName": "Portal Second Age"
  },
  {
    "uuid": "bdfbb15a-d7f4-470a-9d36-78c710a6d397",
    "name": "Mountain",
    "number": 157,
    "setName": "Portal Second Age"
  },
  {
    "uuid": "4453a5c0-76f2-422d-8cbc-4b21c17cdf1e",
    "name": "Mountain",
    "number": 158,
    "setName": "Portal Second Age"
  },
  {
    "uuid": "9006aa97-884f-404a-9ead-af8437ea9596",
    "name": "Mountain",
    "number": 159,
    "setName": "Portal Second Age"
  },
  {
    "uuid": "89f4fcbb-86a8-475f-a547-d59014bb7a98",
    "name": "Forest",
    "number": 151,
    "setName": "Portal Second Age"
  },
  {
    "uuid": "aa863815-1dcc-43d8-8076-a35037688b20",
    "name": "Forest",
    "number": 152,
    "setName": "Portal Second Age"
  },
  {
    "uuid": "abebee47-5205-4855-ae72-475b58a02240",
    "name": "Forest",
    "number": 153,
    "setName": "Portal Second Age"
  },
  {
    "uuid": "27598560-0279-439b-94f5-f42d6422fb5e",
    "name": "Atarka, World Render",
    "number": 117,
    "setName": "Media Inserts"
  },
  {
    "uuid": "73aaacaa-0890-4948-81f3-0de5ee325377",
    "name": "Burning Sun's Avatar",
    "number": 141,
    "setName": "Media Inserts"
  },
  {
    "uuid": "c67d1402-6026-4aad-9f89-6c5828f8bde0",
    "name": "Captain's Hook",
    "number": 143,
    "setName": "Media Inserts"
  },
  {
    "uuid": "cd8586f9-97e2-438d-b74f-1e53c811f314",
    "name": "Checklist",
    "number": 11,
    "setName": "Extras: Eldritch Moon"
  },
  {
    "uuid": "4a8123a6-7e7b-49fb-9ebc-19d8150852e8",
    "name": "Emblem: Chandra",
    "number": 14,
    "setName": "Extras: Magic Origins"
  },
  {
    "uuid": "f3dcc7b5-c911-44c9-be5a-087298ddb492",
    "name": "Checklist",
    "number": 15,
    "setName": "Extras: Magic Origins"
  },
  {
    "uuid": "825c61e7-bf33-45ea-af78-97ab3bc96753",
    "name": "Checklist",
    "number": 4,
    "setName": "Extras: Dark Ascension"
  },
  {
    "uuid": "99ce1bee-8f95-4284-8e06-9de9bfcb53b5",
    "name": "Checklist",
    "number": 13,
    "setName": "Extras: Innistrad"
  },
  {
    "uuid": "4d323ead-24f5-42e4-9e23-aa14eb66264d",
    "name": "Checklist",
    "number": 19,
    "setName": "Extras: Shadows over Innistrad"
  },
  {
    "uuid": "4825c59d-9e27-4a12-ba84-642b8540e573",
    "name": "Checklist",
    "number": 20,
    "setName": "Extras: Shadows over Innistrad"
  },
  {
    "uuid": "4a8b3030-5495-404b-938c-8c4a387a1341",
    "name": "Checklist",
    "number": 11,
    "setName": "Extras: Ixalan"
  },
  {
    "uuid": "e0e3826c-3c85-4910-bd6c-04894ea328d0",
    "name": "Eldrazi Spawn",
    "number": 1,
    "setName": "Extras: Rise of the Eldrazi"
  },
  {
    "uuid": "35fb1a3d-3f1a-45ba-a643-1dca435c77de",
    "name": "Eldrazi Spawn",
    "number": 2,
    "setName": "Extras: Rise of the Eldrazi"
  },
  {
    "uuid": "d0da4f8d-cce9-4d08-8d11-792e0b2af7d0",
    "name": "Eldrazi Spawn",
    "number": 3,
    "setName": "Extras: Rise of the Eldrazi"
  },
  {
    "uuid": "5f136537-1ebe-4018-b406-44ef32ceef04",
    "name": "Emblem: Tezzeret The Schemer",
    "number": 4,
    "setName": "Extras: Aether Revolt"
  },
  {
    "uuid": "07ab720d-40fc-4315-bc8d-c7073cea588b",
    "name": "Token: Unwavering Initiate",
    "number": 14,
    "setName": "Extras: Amonkhet"
  },
  {
    "uuid": "993b4bfd-c5c1-4d0e-b7ff-7615245f9df8",
    "name": "Punch Card Token",
    "number": 26,
    "setName": "Extras: Amonkhet"
  },
  {
    "uuid": "71dc8556-a658-40e1-8a93-6a62af208a28",
    "name": "Token: Adorned Pouncer",
    "number": 1,
    "setName": "Extras: Hour of Devastation"
  },
  {
    "uuid": "65eebe6c-5bc9-463c-b74c-eae79fc3c1b6",
    "name": "Token: Champion of Wits",
    "number": 2,
    "setName": "Extras: Hour of Devastation"
  },
  {
    "uuid": "8c362d05-f2f7-4415-8937-f9f368986e61",
    "name": "Token: Dreamstealer",
    "number": 3,
    "setName": "Extras: Hour of Devastation"
  },
  {
    "uuid": "c4bb3bd7-5aef-495e-81ba-f5d287981dbd",
    "name": "Token: Earthshaker Khenra",
    "number": 4,
    "setName": "Extras: Hour of Devastation"
  },
  {
    "uuid": "7c9d8aac-c032-4e0d-a8ef-99a7c53c7a19",
    "name": "Token: Proven Combatant",
    "number": 5,
    "setName": "Extras: Hour of Devastation"
  },
  {
    "uuid": "c1326c5d-b5a5-4942-b15d-37830ac62c7d",
    "name": "Token: Resilient Khenra",
    "number": 6,
    "setName": "Extras: Hour of Devastation"
  },
  {
    "uuid": "513f2ce9-0127-4479-b37a-a835fbada8f8",
    "name": "Token: Sinuous Striker",
    "number": 7,
    "setName": "Extras: Hour of Devastation"
  },
  {
    "uuid": "872694ba-0666-43c1-8884-47a2e92a127c",
    "name": "Token: Steadfast Sentinel",
    "number": 8,
    "setName": "Extras: Hour of Devastation"
  },
  {
    "uuid": "289a9593-151e-47d0-b0de-5eb9f061515a",
    "name": "Token: Sunscourge Champion",
    "number": 9,
    "setName": "Extras: Hour of Devastation"
  },
  {
    "uuid": "37022fc1-6a13-4873-9eaf-b827da73328e",
    "name": "Punch Card Token",
    "number": 13,
    "setName": "Extras: Hour of Devastation"
  },
  {
    "uuid": "497e410b-97fe-50aa-86ba-d957cb767162",
    "name": "Punch Card Token",
    "number": 14,
    "setName": "Extras: Hour of Devastation"
  },
  {
    "uuid": "80165be4-c6c8-4b22-b259-c64eb4b7fc95",
    "name": "Token: Storm Crow",
    "number": 5,
    "setName": "Extras: Unstable"
  },
  {
    "uuid": "2d844ee2-20a0-4071-bc2c-4a58ab1dc07f",
    "name": "Thopter",
    "number": 6,
    "setName": "Extras: Unstable"
  },
  {
    "uuid": "72b45263-d4e9-4a53-a78b-be651e18b615",
    "name": "Elemental",
    "number": 11,
    "setName": "Extras: Unstable"
  },
  {
    "uuid": "610def80-1303-488e-bfd9-4a27f031d20e",
    "name": "Beast",
    "number": 13,
    "setName": "Extras: Unstable"
  },
  {
    "uuid": "70f1f745-9fc2-41a6-9d39-fb4964595cf5",
    "name": "Elemental",
    "number": 17,
    "setName": "Extras: Unstable"
  },
  {
    "uuid": "9b111525-0600-4bae-94a3-df8f9472388f",
    "name": "Clue",
    "number": 18,
    "setName": "Extras: Unstable"
  },
  {
    "uuid": "887efa4e-f713-4165-a7e1-b0f00ac81784",
    "name": "Soldier // Soldier",
    "number": 2,
    "setName": "Extras: Guilds of Ravnica Guild Kit"
  },
  {
    "uuid": "f78c0976-83c4-4694-a93f-13046902cdd9",
    "name": "Goblin // Soldier",
    "number": 3,
    "setName": "Extras: Guilds of Ravnica Guild Kit"
  },
  {
    "uuid": "64f4dc68-060b-4c63-8f43-00f53c52a251",
    "name": "Goblin // Soldier",
    "number": 4,
    "setName": "Extras: Guilds of Ravnica Guild Kit"
  },
  {
    "uuid": "e1f287ad-55b5-455b-9082-15d68dd27f35",
    "name": "Ob Nixilis, the Hate-Twisted",
    "number": 100,
    "setName": "Prerelease Events: War of the Spark"
  },
  {
    "uuid": "2a50a999-8b16-4f0f-ba30-61e7d1114f1a",
    "name": "Trostani's Summoner",
    "number": 27,
    "setName": "Magic Game Day Cards"
  },
  {
    "uuid": "a9f9c279-e382-4feb-9575-196e7cf5d7dc",
    "name": "B.F.M. (Big Furry Monster Left)",
    "number": "28",
    "setName": "Unglued"
  },
  {
    "uuid": "d15c6375-2e4e-47f7-88e1-d90794e7f724",
    "name": "B.F.M. (Big Furry Monster Right)",
    "number": "29",
    "setName": "Unglued"
  },
  {
    "uuid": "4daccff6-8395-4b11-a4ce-3576aa38bc09",
    "name": "Smash to Smithereens",
    "number": "190",
    "setName": "Friday Night Magic"
  },
  {
    "uuid": "54b8a03a-de93-43ed-b90d-7d168a21801a",
    "name": "Quicksmith Rebel",
    "setName": "Launch Parties",
    "number": "37"
  }
]
